<?xml version="1.0" encoding="UTF-8"?>
<svg width="24px" height="24px" viewBox="0 0 24 24" version="1.1" xmlns="http://www.w3.org/2000/svg" xmlns:xlink="http://www.w3.org/1999/xlink">
    <title>Back@1x</title>
    <g id="Symbols" stroke="none" stroke-width="1" fill="none" fill-rule="evenodd">
        <g id="Group">
            <rect id="Rectangle" x="0" y="0" width="24" height="24"></rect>
            <g id="arrow-left-(1)" transform="translate(6.000000, 7.000000)" stroke="#16212D" stroke-linecap="round" stroke-linejoin="round" stroke-width="2">
                <polyline id="Path" points="5.45454545 10.9090909 0 5.45454545 5.45454545 0"></polyline>
                <line x1="12" y1="5.45454545" x2="1.09090909" y2="5.45454545" id="Path"></line>
            </g>
        </g>
    </g>
</svg>