<?xml version="1.0" encoding="UTF-8"?>
<svg width="225px" height="224px" viewBox="0 0 225 224" version="1.1" xmlns="http://www.w3.org/2000/svg" xmlns:xlink="http://www.w3.org/1999/xlink">
    <title>donation@1x</title>
    <defs>
        <filter x="-83.8%" y="-83.8%" width="267.5%" height="267.5%" filterUnits="objectBoundingBox" id="filter-1">
            <feOffset dx="0" dy="15" in="SourceAlpha" result="shadowOffsetOuter1"></feOffset>
            <feGaussianBlur stdDeviation="27.5" in="shadowOffsetOuter1" result="shadowBlurOuter1"></feGaussianBlur>
            <feColorMatrix values="0 0 0 0 0.615686275   0 0 0 0 0.639215686   0 0 0 0 0.705882353  0 0 0 0.16 0" type="matrix" in="shadowBlurOuter1" result="shadowMatrixOuter1"></feColorMatrix>
            <feMerge>
                <feMergeNode in="shadowMatrixOuter1"></feMergeNode>
                <feMergeNode in="SourceGraphic"></feMergeNode>
            </feMerge>
        </filter>
    </defs>
    <g id="Page-1" stroke="none" stroke-width="1" fill="none" fill-rule="evenodd">
        <g id="Category" transform="translate(11.000000, -127.000000)" fill-rule="nonzero">
            <g id="1" filter="url(#filter-1)" transform="translate(20.000000, 185.000000)">
                <g id="Group-10" transform="translate(44.000000, 29.000000)">
                    <g id="Icon" transform="translate(12.000000, 0.000000)">
                        <g id="donation" transform="translate(12.000000, 12.000000)">
                            <path d="M13.4515952,4.32213889 C13.3721508,4.2956746 13.2894048,4.32193254 13.2067619,4.32177778 C13.1242738,4.32157143 13.0419405,4.29495238 12.9627024,4.32141667 L3.67621429,7.41737698 L3.67621429,8.88488095 L12.9619286,11.980119 C13.0412698,12.0065833 13.124377,12.0201508 13.2067619,12.0201508 C13.2891468,12.0201508 13.372254,12.0065317 13.4515952,11.980119 L22.7373095,8.88488095 L22.7373095,7.41737698 L13.4515952,4.32213889 Z" id="Path" fill="#FEC37D"></path>
                            <path d="M22.7373095,8.88488095 L22.7373095,7.41737698 L13.4515952,4.32213889 C13.3721508,4.2956746 13.2894048,4.32193254 13.2067619,4.32177778 L13.2067619,12.0202024 C13.2891468,12.0202024 13.372254,12.0065833 13.4515952,11.9801706 L22.7373095,8.88488095 Z" id="Path" fill="#F9AE5D"></path>
                            <path d="M13.2067619,10.7302619 L3.1472381,10.7302619 L3.1472381,22.1313135 C3.1472381,22.4645675 3.36034524,22.7600595 3.67621429,22.8650913 L12.9619286,25.9603294 C13.0412698,25.9867937 13.124377,26.0003611 13.2067619,26.0003611 C13.2891468,26.0003611 13.372254,25.9867421 13.4515952,25.9603294 L22.7373095,22.8650913 C23.0531786,22.7600595 23.2662857,22.4645675 23.2662857,22.1313135 L23.2662857,10.7302619 L13.2067619,10.7302619 Z" id="Path" fill="#FEC37D"></path>
                            <path d="M22.7373095,22.8650397 C23.0531786,22.7600079 23.2662857,22.4645159 23.2662857,22.1312619 L23.2662857,10.7302619 L13.2067619,10.7302619 L13.2067619,26.0003611 C13.2891468,26.0003611 13.372254,25.9867421 13.4515952,25.9603294 L22.7373095,22.8650397 Z" id="Path" fill="#F9AE5D"></path>
                            <path d="M15.1412857,0.00030952381 C14.3899167,0.00030952381 13.7266587,0.290952381 13.2067619,0.844380952 C12.6868651,0.290952381 12.0236071,0.00030952381 11.2722381,0.00030952381 C9.75355952,0.00030952381 8.56390476,1.19166667 8.56390476,2.71256349 C8.56390476,4.32090079 9.89078175,5.35465873 11.7271349,6.78543254 C12.0454286,7.0334127 12.374504,7.28980159 12.7233889,7.56888889 C12.8646865,7.68191667 13.03575,7.73845635 13.2067619,7.73845635 C13.3777738,7.73845635 13.5488373,7.68191667 13.6901349,7.56888889 C14.0390198,7.28980159 14.3680952,7.0334127 14.6863889,6.78543254 C16.5227937,5.35465873 17.849619,4.32090079 17.849619,2.71256349 C17.849619,1.19166667 16.6599643,0.00030952381 15.1412857,0.00030952381 Z" id="Path" fill="#D6245A"></path>
                            <path d="M13.6901349,7.5688373 C14.0390198,7.28975 14.3680952,7.03336111 14.6863889,6.78538095 C16.5227937,5.35460714 17.849619,4.32090079 17.849619,2.7125119 C17.849619,1.19161508 16.6599643,0.000257936508 15.1412857,0.000257936508 C14.3899167,0.000257936508 13.7266587,0.290900794 13.2067619,0.844329365 L13.2067619,7.73835321 C13.3777738,7.73835321 13.5488373,7.68191667 13.6901349,7.5688373 Z" id="Path" fill="#D6245A"></path>
                            <path d="M26.2831111,12.364754 L23.1362857,7.72189683 C22.9420595,7.43094444 22.5770794,7.30326587 22.2475913,7.41737698 L13.2067103,10.431004 L4.16588095,7.41737698 C3.83412302,7.30403968 3.46991667,7.43099603 3.27718651,7.72189683 L0.130361111,12.364754 C-0.155071429,12.7937024 0.0506587302,13.3697262 0.529337302,13.5277381 L9.86663889,16.6229762 C10.19525,16.7334762 10.5607976,16.610131 10.7553333,16.3184563 L13.2067619,12.6413651 L15.6581905,16.3184563 C15.852881,16.6104405 16.2186349,16.7334246 16.5468849,16.6229762 L25.8841865,13.5277381 C26.3636905,13.3694167 26.5679246,12.7927738 26.2831111,12.364754 Z" id="Path" fill="#F2A559"></path>
                            <path d="M16.5468333,16.6229762 L25.8841349,13.5277381 C26.3636905,13.3694167 26.5679246,12.7927738 26.2831111,12.364754 L23.1362857,7.72189683 C22.9420595,7.43094444 22.5770794,7.30326587 22.2475913,7.41737698 L13.2067103,10.431004 L13.2067103,12.6413651 L15.6581389,16.3184563 C15.8528294,16.6104405 16.2185833,16.7334246 16.5468333,16.6229762 Z" id="Path" fill="#EA8F3D"></path>
                        </g>
                    </g>
                </g>
            </g>
        </g>
    </g>
</svg>