<?xml version="1.0" encoding="UTF-8"?>
<svg width="16px" height="16px" viewBox="0 0 16 16" version="1.1" xmlns="http://www.w3.org/2000/svg" xmlns:xlink="http://www.w3.org/1999/xlink">
    <title>Facebook@1x</title>
    <g id="Page-1" stroke="none" stroke-width="1" fill="none" fill-rule="evenodd">
        <g id="Login" transform="translate(-262.000000, -675.000000)" fill-rule="nonzero">
            <g id="Group-3" transform="translate(30.000000, 381.000000)">
                <g id="btn-google-copy" transform="translate(165.000000, 274.000000)">
                    <g id="Facebook" transform="translate(67.000000, 20.000000)">
                        <path d="M15.0421004,15.9208649 C15.5272896,15.9208649 15.9207413,15.5274131 15.9207413,15.0421004 L15.9207413,0.878702703 C15.9207413,0.393328185 15.5273514,0 15.0421004,0 L0.878702703,0 C0.393328185,0 0,0.393328185 0,0.878702703 L0,15.0421004 C0,15.5273514 0.393266409,15.9208649 0.878702703,15.9208649 L15.0421004,15.9208649 Z" id="Blue_1_" fill="#3C5A99"></path>
                        <path d="M11.0214054,15.9571892 L11.0214054,9.7917529 L13.0908417,9.7917529 L13.4007104,7.38897297 L11.0214054,7.38897297 L11.0214054,5.85494981 C11.0214054,5.15928958 11.2145792,4.68522008 12.212139,4.68522008 L13.4844788,4.68466409 L13.4844788,2.53559846 C13.2644324,2.5063166 12.5091583,2.44089575 11.6304556,2.44089575 C9.79601544,2.44089575 8.54010811,3.56064865 8.54010811,5.61698842 L8.54010811,7.38897297 L6.46535907,7.38897297 L6.46535907,9.7917529 L8.54010811,9.7917529 L8.54010811,15.9571892 L11.0214054,15.9571892 Z" id="f" fill="#FFFFFF"></path>
                    </g>
                </g>
            </g>
        </g>
    </g>
</svg>