<?xml version="1.0" encoding="UTF-8"?>
<svg width="8px" height="12px" viewBox="0 0 8 12" version="1.1" xmlns="http://www.w3.org/2000/svg" xmlns:xlink="http://www.w3.org/1999/xlink">
    <title>Right Icon@1x</title>
    <defs>
        <polygon id="path-1" points="3.92 4.70222222 8 8.78222222 12.08 4.70222222 13.3333333 5.96444444 8 11.2977778 2.66666667 5.96444444"></polygon>
    </defs>
    <g id="Page-1" stroke="none" stroke-width="1" fill="none" fill-rule="evenodd">
        <g id="Phone-Verification" transform="translate(-42.000000, -79.000000)">
            <g id="Components-/-Button-/-5.-Close" transform="translate(30.000000, 69.000000)">
                <g id="Right-Icon" transform="translate(8.000000, 8.000000)">
                    <rect id="Base" x="0" y="0" width="16" height="16"></rect>
                    <mask id="mask-2" fill="white">
                        <use xlink:href="#path-1"></use>
                    </mask>
                    <use id="Shape" fill="#000000" fill-rule="nonzero" transform="translate(8.000000, 8.000000) rotate(90.000000) translate(-8.000000, -8.000000) " xlink:href="#path-1"></use>
                    <g id="Group" mask="url(#mask-2)" fill="#2D2D2D">
                        <g id="Color/02">
                            <rect id="Color" x="0" y="0" width="16" height="16"></rect>
                        </g>
                    </g>
                </g>
            </g>
        </g>
    </g>
</svg>