<?xml version="1.0" encoding="UTF-8"?>
<svg width="24px" height="24px" viewBox="0 0 24 24" version="1.1" xmlns="http://www.w3.org/2000/svg" xmlns:xlink="http://www.w3.org/1999/xlink">
    <title>Share@1x</title>
    <g id="Symbols" stroke="none" stroke-width="1" fill="none" fill-rule="evenodd">
        <g id="Group">
            <rect id="Rectangle" x="0" y="0" width="24" height="24"></rect>
            <g id="share-(1)" transform="translate(5.000000, 4.000000)" stroke="#16212D" stroke-linecap="round" stroke-linejoin="round" stroke-width="2">
                <path d="M0,8 L0,14.4 C0,15.2836556 0.7163444,16 1.6,16 L11.2,16 C12.0836556,16 12.8,15.2836556 12.8,14.4 L12.8,8" id="Path"></path>
                <polyline id="Path" points="9.6 3.2 6.4 0 3.2 3.2"></polyline>
                <line x1="6.4" y1="0" x2="6.4" y2="10.4" id="Path"></line>
            </g>
        </g>
    </g>
</svg>